\relax 
\@writefile{toc}{\contentsline {section}{\numberline {1}INTRODUCTION :}{1}}
\@writefile{toc}{\contentsline {subsection}{\numberline {1.1}\relax \fontsize  {12}{14}\selectfont  L'organisation}{1}}
\@writefile{toc}{\contentsline {section}{\numberline {2}FONCTIONNEMENT DU PROGRAMME :}{1}}
\@writefile{toc}{\contentsline {subsection}{\numberline {2.1}\relax \fontsize  {12}{14}\selectfont  Slitherlink ?}{1}}
\@writefile{toc}{\contentsline {subsection}{\numberline {2.2}\relax \fontsize  {12}{14}\selectfont  D\IeC {\'e}but du projet}{2}}
\@writefile{toc}{\contentsline {subsection}{\numberline {2.3}\relax \fontsize  {12}{14}\selectfont  Formalisme}{2}}
\@writefile{toc}{\contentsline {subsection}{\numberline {2.4}\relax \fontsize  {12}{14}\selectfont  Les algorithmes}{2}}
\@writefile{toc}{\contentsline {section}{\numberline {3}R\IeC {\'E}SUM\IeC {\'E} DE L'AVANCEMENT DU PROGRAMME :}{4}}
\@writefile{toc}{\contentsline {subsection}{\numberline {3.1}\relax \fontsize  {12}{14}\selectfont  \IeC {\'E}tape 1 :}{4}}
\@writefile{toc}{\contentsline {subsection}{\numberline {3.2}\relax \fontsize  {12}{14}\selectfont  \IeC {\'E}tape 2 :}{4}}
\@writefile{toc}{\contentsline {subsection}{\numberline {3.3}\relax \fontsize  {12}{14}\selectfont  \IeC {\'E}tape 3 :}{4}}
\@writefile{toc}{\contentsline {subsection}{\numberline {3.4}\relax \fontsize  {12}{14}\selectfont  \IeC {\'E}tape 4 :}{4}}
\@writefile{toc}{\contentsline {section}{\numberline {4}CONCLUSION :}{4}}
\@writefile{toc}{\contentsline {section}{\numberline {5}ANNEXE}{4}}
